sim/axi_crc_top.vcd
$date
	Tue Feb 17 00:29:47 2026
$end
$version
	Icarus Verilog
$end
$timescale
	1ps
$end
$scope module tb_axi_crc_top $end
$var wire 1 ! s_wready $end
$var wire 1 " s_rvalid $end
$var wire 2 # s_rresp [1:0] $end
$var wire 32 $ s_rdata [31:0] $end
$var wire 1 % s_bvalid $end
$var wire 2 & s_bresp [1:0] $end
$var wire 1 ' s_awready $end
$var wire 1 ( s_arready $end
$var reg 1 ) ACLK $end
$var reg 1 * ARESETn $end
$var reg 32 + crc_result [31:0] $end
$var reg 32 , random_val [31:0] $end
$var reg 8 - s_araddr [7:0] $end
$var reg 1 . s_arvalid $end
$var reg 8 / s_awaddr [7:0] $end
$var reg 1 0 s_awvalid $end
$var reg 1 1 s_bready $end
$var reg 1 2 s_rready $end
$var reg 32 3 s_wdata [31:0] $end
$var reg 1 4 s_wvalid $end
$scope module dut $end
$var wire 1 ) ACLK $end
$var wire 1 * ARESETn $end
$var wire 8 5 s_araddr [7:0] $end
$var wire 1 . s_arvalid $end
$var wire 8 6 s_awaddr [7:0] $end
$var wire 1 0 s_awvalid $end
$var wire 1 1 s_bready $end
$var wire 1 2 s_rready $end
$var wire 32 7 s_wdata [31:0] $end
$var wire 1 4 s_wvalid $end
$var wire 1 ! s_wready $end
$var wire 1 " s_rvalid $end
$var wire 2 8 s_rresp [1:0] $end
$var wire 32 9 s_rdata [31:0] $end
$var wire 1 % s_bvalid $end
$var wire 2 : s_bresp [1:0] $end
$var wire 1 ' s_awready $end
$var wire 1 ( s_arready $end
$var wire 32 ; crc_result [31:0] $end
$var wire 32 < crc_initial [31:0] $end
$var wire 32 = crc_data [31:0] $end
$scope module CRC $end
$var wire 32 > data_in [31:0] $end
$var wire 32 ? crc_out [31:0] $end
$var wire 32 @ crcIn [31:0] $end
$upscope $end
$scope module Slave0 $end
$var wire 1 ) ACLK $end
$var wire 1 * ARESETn $end
$var wire 32 A crc_result [31:0] $end
$var wire 8 B s_araddr [7:0] $end
$var wire 1 . s_arvalid $end
$var wire 8 C s_awaddr [7:0] $end
$var wire 1 0 s_awvalid $end
$var wire 1 1 s_bready $end
$var wire 1 2 s_rready $end
$var wire 32 D s_wdata [31:0] $end
$var wire 1 4 s_wvalid $end
$var wire 32 E crc_initial [31:0] $end
$var wire 32 F crc_data [31:0] $end
$var reg 1 G aw_receive $end
$var reg 1 H crc_en $end
$var reg 1 I re_en $end
$var reg 32 J reg_crc_data [31:0] $end
$var reg 32 K reg_crc_initial [31:0] $end
$var reg 32 L reg_crc_result [31:0] $end
$var reg 8 M reg_raddr [7:0] $end
$var reg 8 N reg_waddr [7:0] $end
$var reg 1 ( s_arready $end
$var reg 1 ' s_awready $end
$var reg 2 O s_bresp [1:0] $end
$var reg 1 % s_bvalid $end
$var reg 32 P s_rdata [31:0] $end
$var reg 2 Q s_rresp [1:0] $end
$var reg 1 " s_rvalid $end
$var reg 1 ! s_wready $end
$var reg 1 R w_receive $end
$upscope $end
$upscope $end
$scope task axi_read $end
$var reg 8 S addr [7:0] $end
$var reg 32 T data [31:0] $end
$upscope $end
$scope task axi_write $end
$var reg 8 U addr [7:0] $end
$var reg 32 V data [31:0] $end
$upscope $end
$upscope $end
$enddefinitions $end
#0
$dumpvars
bx V
bx U
bx T
bx S
0R
b0 Q
bx P
b0 O
b0 N
b0 M
b0 L
bx K
bx J
xI
0H
0G
bx F
bx E
bx D
bx C
bx B
bx A
bx @
bx ?
bx >
bx =
bx <
bx ;
b0 :
bx 9
b0 8
bx 7
bx 6
bx 5
04
bx 3
02
01
00
bx /
0.
bx -
bx ,
bx +
0*
0)
0(
0'
b0 &
0%
bx $
b0 #
0"
0!
$end
#5000
1)
#10000
0)
#15000
1)
#20000
b11111111111111111111111111111111 V
b0 U
b10010010000101010011010100100100 ,
0)
1*
#25000
0I
11
14
b11111111111111111111111111111111 3
b11111111111111111111111111111111 7
b11111111111111111111111111111111 D
10
b0 /
b0 6
b0 C
1)
#30000
0)
#35000
b11111111111111111111111111111111 <
b11111111111111111111111111111111 @
b11111111111111111111111111111111 E
b11111111111111111111111111111111 K
1!
1'
1)
#40000
0)
#45000
1R
0!
1G
0'
04
00
1)
#50000
0)
#55000
01
b10010010000101010011010100100100 V
b100 U
0R
0G
1%
1)
#60000
0)
#65000
11
14
b10010010000101010011010100100100 3
b10010010000101010011010100100100 7
b10010010000101010011010100100100 D
10
b100 /
b100 6
b100 C
1)
#70000
0)
#75000
b11111010111111110010101110001101 ;
b11111010111111110010101110001101 ?
b11111010111111110010101110001101 A
b10010010000101010011010100100100 =
b10010010000101010011010100100100 >
b10010010000101010011010100100100 F
b10010010000101010011010100100100 J
1!
b100 N
1'
0%
1)
#80000
0)
#85000
1R
0!
1G
0'
04
00
1)
#90000
0)
#95000
01
b100 S
0R
0G
1H
1%
1)
#100000
0)
#105000
b11111010111111110010101110001101 L
0H
12
1.
b100 -
b100 5
b100 B
1)
#110000
0)
#115000
1I
b100 M
1(
1)
#120000
0)
#125000
b10010010000101010011010100100100 T
b10010010000101010011010100100100 $
b10010010000101010011010100100100 9
b10010010000101010011010100100100 P
1"
0I
0(
0.
1)
#130000
0)
#135000
0"
02
b1000 S
b10010010000101010011010100100100 +
1)
#140000
0)
#145000
12
1.
b1000 -
b1000 5
b1000 B
1)
#150000
0)
#155000
1I
b1000 M
1(
1)
#160000
0)
#165000
b11111010111111110010101110001101 T
b11111010111111110010101110001101 $
b11111010111111110010101110001101 9
b11111010111111110010101110001101 P
1"
0I
0(
0.
1)
#170000
0)
#175000
0"
02
b1100 S
b11111010111111110010101110001101 +
1)
#180000
0)
#185000
12
1.
b1100 -
b1100 5
b1100 B
1)
#190000
0)
#195000
1I
b1100 M
1(
1)
#200000
0)
#205000
b0 T
b10 #
b10 8
b10 Q
b0 $
b0 9
b0 P
1"
0I
0(
0.
1)
#210000
0)
#215000
0"
02
b0 +
1)
#220000
0)
#225000
11
14
b11111111111111111111111111111111 3
b11111111111111111111111111111111 7
b11111111111111111111111111111111 D
10
b0 /
b0 6
b0 C
1)
b11111111111111111111111111111111 V
b0 U
b1000000100010010101111010000001 ,
#230000
0)
#235000
1!
b0 N
1'
0%
1)
#240000
0)
#245000
1R
0!
1G
0'
04
00
1)
#250000
0)
#255000
01
b1000000100010010101111010000001 V
b100 U
0R
0G
1%
1)
#260000
0)
#265000
11
14
b1000000100010010101111010000001 3
b1000000100010010101111010000001 7
b1000000100010010101111010000001 D
10
b100 /
b100 6
b100 C
1)
#270000
0)
#275000
b1110001111000011001000010010101 ;
b1110001111000011001000010010101 ?
b1110001111000011001000010010101 A
b1000000100010010101111010000001 =
b1000000100010010101111010000001 >
b1000000100010010101111010000001 F
b1000000100010010101111010000001 J
1!
b100 N
1'
0%
1)
#280000
0)
#285000
1R
0!
1G
0'
04
00
1)
#290000
0)
#295000
01
b100 S
0R
0G
1H
1%
1)
#300000
0)
#305000
b1110001111000011001000010010101 L
0H
12
1.
b100 -
b100 5
b100 B
1)
#310000
0)
#315000
1I
b100 M
1(
1)
#320000
0)
#325000
b1000000100010010101111010000001 T
b0 #
b0 8
b0 Q
b1000000100010010101111010000001 $
b1000000100010010101111010000001 9
b1000000100010010101111010000001 P
1"
0I
0(
0.
1)
#330000
0)
#335000
0"
02
b1000 S
b1000000100010010101111010000001 +
1)
#340000
0)
#345000
12
1.
b1000 -
b1000 5
b1000 B
1)
#350000
0)
#355000
1I
b1000 M
1(
1)
#360000
0)
#365000
b1110001111000011001000010010101 T
b1110001111000011001000010010101 $
b1110001111000011001000010010101 9
b1110001111000011001000010010101 P
1"
0I
0(
0.
1)
#370000
0)
#375000
0"
02
b1100 S
b1110001111000011001000010010101 +
1)
#380000
0)
#385000
12
1.
b1100 -
b1100 5
b1100 B
1)
#390000
0)
#395000
1I
b1100 M
1(
1)
#400000
0)
#405000
b0 T
b10 #
b10 8
b10 Q
b0 $
b0 9
b0 P
1"
0I
0(
0.
1)
#410000
0)
#415000
0"
02
b0 +
1)
#420000
0)
#425000
11
14
b11111111111111111111111111111111 3
b11111111111111111111111111111111 7
b11111111111111111111111111111111 D
10
b0 /
b0 6
b0 C
1)
b11111111111111111111111111111111 V
b0 U
b100100001001101011000001001 ,
#430000
0)
#435000
1!
b0 N
1'
0%
1)
#440000
0)
#445000
1R
0!
1G
0'
04
00
1)
#450000
0)
#455000
01
b100100001001101011000001001 V
b100 U
0R
0G
1%
1)
#460000
0)
#465000
11
14
b100100001001101011000001001 3
b100100001001101011000001001 7
b100100001001101011000001001 D
10
b100 /
b100 6
b100 C
1)
#470000
0)
#475000
b1110010001101011011111110111101 ;
b1110010001101011011111110111101 ?
b1110010001101011011111110111101 A
b100100001001101011000001001 =
b100100001001101011000001001 >
b100100001001101011000001001 F
b100100001001101011000001001 J
1!
b100 N
1'
0%
1)
#480000
0)
#485000
1R
0!
1G
0'
04
00
1)
#490000
0)
#495000
01
b100 S
0R
0G
1H
1%
1)
#500000
0)
#505000
b1110010001101011011111110111101 L
0H
12
1.
b100 -
b100 5
b100 B
1)
#510000
0)
#515000
1I
b100 M
1(
1)
#520000
0)
#525000
b100100001001101011000001001 T
b0 #
b0 8
b0 Q
b100100001001101011000001001 $
b100100001001101011000001001 9
b100100001001101011000001001 P
1"
0I
0(
0.
1)
#530000
0)
#535000
0"
02
b1000 S
b100100001001101011000001001 +
1)
#540000
0)
#545000
12
1.
b1000 -
b1000 5
b1000 B
1)
#550000
0)
#555000
1I
b1000 M
1(
1)
#560000
0)
#565000
b1110010001101011011111110111101 T
b1110010001101011011111110111101 $
b1110010001101011011111110111101 9
b1110010001101011011111110111101 P
1"
0I
0(
0.
1)
#570000
0)
#575000
0"
02
b1100 S
b1110010001101011011111110111101 +
1)
#580000
0)
#585000
12
1.
b1100 -
b1100 5
b1100 B
1)
#590000
0)
#595000
1I
b1100 M
1(
1)
#600000
0)
#605000
b0 T
b10 #
b10 8
b10 Q
b0 $
b0 9
b0 P
1"
0I
0(
0.
1)
#610000
0)
#615000
0"
02
b0 +
1)
#620000
0)
#625000
11
14
b11111111111111111111111111111111 3
b11111111111111111111111111111111 7
b11111111111111111111111111111111 D
10
b0 /
b0 6
b0 C
1)
b11111111111111111111111111111111 V
b0 U
b110001111100000101011001100011 ,
#630000
0)
#635000
1!
b0 N
1'
0%
1)
#640000
0)
#645000
1R
0!
1G
0'
04
00
1)
#650000
0)
#655000
01
b110001111100000101011001100011 V
b100 U
0R
0G
1%
1)
#660000
0)
#665000
11
14
b110001111100000101011001100011 3
b110001111100000101011001100011 7
b110001111100000101011001100011 D
10
b100 /
b100 6
b100 C
1)
#670000
0)
#675000
b11011010011110111100101110001011 ;
b11011010011110111100101110001011 ?
b11011010011110111100101110001011 A
b110001111100000101011001100011 =
b110001111100000101011001100011 >
b110001111100000101011001100011 F
b110001111100000101011001100011 J
1!
b100 N
1'
0%
1)
#680000
0)
#685000
1R
0!
1G
0'
04
00
1)
#690000
0)
#695000
01
b100 S
0R
0G
1H
1%
1)
#700000
0)
#705000
b11011010011110111100101110001011 L
0H
12
1.
b100 -
b100 5
b100 B
1)
#710000
0)
#715000
1I
b100 M
1(
1)
#720000
0)
#725000
b110001111100000101011001100011 T
b0 #
b0 8
b0 Q
b110001111100000101011001100011 $
b110001111100000101011001100011 9
b110001111100000101011001100011 P
1"
0I
0(
0.
1)
#730000
0)
#735000
0"
02
b1000 S
b110001111100000101011001100011 +
1)
#740000
0)
#745000
12
1.
b1000 -
b1000 5
b1000 B
1)
#750000
0)
#755000
1I
b1000 M
1(
1)
#760000
0)
#765000
b11011010011110111100101110001011 T
b11011010011110111100101110001011 $
b11011010011110111100101110001011 9
b11011010011110111100101110001011 P
1"
0I
0(
0.
1)
#770000
0)
#775000
0"
02
b1100 S
b11011010011110111100101110001011 +
1)
#780000
0)
#785000
12
1.
b1100 -
b1100 5
b1100 B
1)
#790000
0)
#795000
1I
b1100 M
1(
1)
#800000
0)
#805000
b0 T
b10 #
b10 8
b10 Q
b0 $
b0 9
b0 P
1"
0I
0(
0.
1)
#810000
0)
#815000
0"
02
b0 +
1)
#820000
0)
#825000
11
14
b11111111111111111111111111111111 3
b11111111111111111111111111111111 7
b11111111111111111111111111111111 D
10
b0 /
b0 6
b0 C
1)
b11111111111111111111111111111111 V
b0 U
b10000110101110010111101100001101 ,
#830000
0)
#835000
1!
b0 N
1'
0%
1)
#840000
0)
#845000
1R
0!
1G
0'
04
00
1)
#850000
0)
#855000
01
b10000110101110010111101100001101 V
b100 U
0R
0G
1%
1)
#860000
0)
#865000
11
14
b10000110101110010111101100001101 3
b10000110101110010111101100001101 7
b10000110101110010111101100001101 D
10
b100 /
b100 6
b100 C
1)
#870000
0)
#875000
b1000101101010010100110001101011 ;
b1000101101010010100110001101011 ?
b1000101101010010100110001101011 A
b10000110101110010111101100001101 =
b10000110101110010111101100001101 >
b10000110101110010111101100001101 F
b10000110101110010111101100001101 J
1!
b100 N
1'
0%
1)
#880000
0)
#885000
1R
0!
1G
0'
04
00
1)
#890000
0)
#895000
01
b100 S
0R
0G
1H
1%
1)
#900000
0)
#905000
b1000101101010010100110001101011 L
0H
12
1.
b100 -
b100 5
b100 B
1)
#910000
0)
#915000
1I
b100 M
1(
1)
#920000
0)
#925000
b10000110101110010111101100001101 T
b0 #
b0 8
b0 Q
b10000110101110010111101100001101 $
b10000110101110010111101100001101 9
b10000110101110010111101100001101 P
1"
0I
0(
0.
1)
#930000
0)
#935000
0"
02
b1000 S
b10000110101110010111101100001101 +
1)
#940000
0)
#945000
12
1.
b1000 -
b1000 5
b1000 B
1)
#950000
0)
#955000
1I
b1000 M
1(
1)
#960000
0)
#965000
b1000101101010010100110001101011 T
b1000101101010010100110001101011 $
b1000101101010010100110001101011 9
b1000101101010010100110001101011 P
1"
0I
0(
0.
1)
#970000
0)
#975000
0"
02
b1100 S
b1000101101010010100110001101011 +
1)
#980000
0)
#985000
12
1.
b1100 -
b1100 5
b1100 B
1)
#990000
0)
#995000
1I
b1100 M
1(
1)
#1000000
0)
#1005000
b0 T
b10 #
b10 8
b10 Q
b0 $
b0 9
b0 P
1"
0I
0(
0.
1)
#1010000
0)
#1015000
0"
02
b0 +
1)
